How to use cleanETHPOP
…
How to use cleanETHPOP

library(cleanETHPOP)
library(dplyr)
library(tidyr)
library(readr)
library(reshape2)

Clean birth data

clean_births()
#> # A tibble: 1,800 x 4
#>    ETH.group year  sex    births
#>    <chr>     <chr> <chr>   <dbl>
#>  1 BAN       2011  person 12971.
#>  2 BLA       2011  person 21226.
#>  3 BLC       2011  person  6479.
#>  4 CHI       2011  person  4441.
#>  5 IND       2011  person 26853.
#>  6 MIX       2011  person 36887.
#>  7 OAS       2011  person 13712.
#>  8 OBL       2011  person  3833.
#>  9 OTH       2011  person  4704.
#> 10 PAK       2011  person 33370.
#> # ... with 1,790 more rows

Clean death data

clean_deaths()
#> # A tibble: 25,200 x 5
#> # Groups:   ETH.group, agegrp [252]
#>    ETH.group agegrp  sex   deaths year 
#>    <chr>     <fct>   <chr>  <dbl> <chr>
#>  1 BAN       [0,5)   F      38.9  2011 
#>  2 BAN       [0,5)   M      45.7  2011 
#>  3 BAN       [5,10)  F       2.14 2011 
#>  4 BAN       [5,10)  M       4.20 2011 
#>  5 BAN       [10,15) F       2.17 2011 
#>  6 BAN       [10,15) M       2.99 2011 
#>  7 BAN       [15,20) F       3.14 2011 
#>  8 BAN       [15,20) M       7.24 2011 
#>  9 BAN       [20,25) F       2.77 2011 
#> 10 BAN       [20,25) M       8.75 2011 
#> # ... with 25,190 more rows

Clean population data

clean_pop()
#> # A tibble: 123,624 x 5
#> # Groups:   age, ETH.group [1,212]
#>    age   ETH.group sex      pop year 
#>    <chr> <chr>     <chr>  <dbl> <chr>
#>  1 0     BAN       F      4844. 2011 
#>  2 0     BAN       M      4884. 2011 
#>  3 0     BLA       F     10529. 2011 
#>  4 0     BLA       M     10806. 2011 
#>  5 0     BLC       F      2728. 2011 
#>  6 0     BLC       M      2736. 2011 
#>  7 0     CHI       F      1816. 2011 
#>  8 0     CHI       M      2125. 2011 
#>  9 0     IND       F      9749. 2011 
#> 10 0     IND       M      9994. 2011 
#> # ... with 123,614 more rows

Clean in-migration data

There are 2 different scenario available:

‘Leeds1’: BREXIT scenario

‘Leeds2’: ONS aligned scenario

# where_data <- here::here("rawdata", "Leeds1", "InMigrants")
where_data <- here::here("rawdata", "Leeds2", "InMigrants")

clean_inmigrants(dir_path = where_data)
#> # A tibble: 121,200 x 5
#> # Groups:   age, ETH.group [1,212]
#>    age   ETH.group sex   inmigrants year 
#>    <chr> <chr>     <chr>      <dbl> <chr>
#>  1 0     BAN       F           18.1 2011 
#>  2 0     BAN       M           15.6 2011 
#>  3 0     BLA       F          145.  2011 
#>  4 0     BLA       M          107.  2011 
#>  5 0     BLC       F           15.3 2011 
#>  6 0     BLC       M           10.7 2011 
#>  7 0     CHI       F           58.0 2011 
#>  8 0     CHI       M           40.9 2011 
#>  9 0     IND       F          114.  2011 
#> 10 0     IND       M           92.0 2011 
#> # ... with 121,190 more rows

Clean out-migration data

clean_outmigrants()
#> # A tibble: 119,180 x 5
#> # Groups:   age, ETH.group [1,212]
#>    age   ETH.group sex   outmigrants year 
#>    <chr> <chr>     <chr>       <dbl> <chr>
#>  1 0     WBI       F          13509. 2011 
#>  2 0     WBI       M          14354. 2011 
#>  3 0     WHO       F             NA  2011 
#>  4 0     WHO       M           1401. 2011 
#>  5 1     WBI       F          12805. 2011 
#>  6 1     WBI       M          13456. 2011 
#>  7 1     WHO       F             NA  2011 
#>  8 1     WHO       M           1274. 2011 
#>  9 10    WBI       F           6016. 2011 
#> 10 10    WBI       M           6229. 2011 
#> # ... with 119,170 more rows

Create out-migration per capital data

outmigrants_per_capita()
#> # A tibble: 119,180 x 6
#>    sex     age ETH.group  year ETH_fac outmigrants_per_capita
#>    <fct> <dbl> <fct>     <int> <fct>                    <dbl>
#>  1 F         0 BAN        2012 BAN                     0.0398
#>  2 F         0 BAN        2013 BAN                     0.0398
#>  3 F         0 BAN        2014 BAN                     0.0398
#>  4 F         0 BAN        2015 BAN                     0.0398
#>  5 F         0 BAN        2016 BAN                     0.0397
#>  6 F         0 BAN        2017 BAN                     0.0396
#>  7 F         0 BAN        2018 BAN                     0.0395
#>  8 F         0 BAN        2019 BAN                     0.0394
#>  9 F         0 BAN        2020 BAN                     0.0393
#> 10 F         0 BAN        2021 BAN                     0.0392
#> # ... with 119,170 more rows
